00:00:00.432002 VirtualBox GUI VM Selector Window 6.1.10 r138449 linux.amd64 (Jun  8 2020 08:33:44) release log
00:00:00.432006 Log opened 2020-06-23T12:27:12.722434000Z
00:00:00.432008 Build Type: release
00:00:00.432012 OS Product: Linux
00:00:00.432014 OS Release: 5.4.47-1-lts
00:00:00.432017 OS Version: #1 SMP Wed, 17 Jun 2020 19:42:02 +0000
00:00:00.432057 DMI Product Name: 42872RG
00:00:00.432074 DMI Product Version: ThinkPad X220
00:00:00.432097 Firmware type: BIOS
00:00:00.432175 Host RAM: 7790MB (7.6GB) total, 7140MB (6.9GB) available
00:00:00.432181 Executable: /usr/lib/virtualbox/VirtualBox
00:00:00.432182 Process ID: 29613
00:00:00.432183 Package type: LINUX_64BITS_GENERIC (OSE)
00:00:00.432233 Qt version: 5.15.0
00:00:00.482806 GUI: UIMediumEnumerator: Medium-enumeration started...
00:00:01.118691 GUI: UIDesktopWidgetWatchdog::sltHandleHostScreenAvailableGeometryCalculated: Screen 0 work area is actually resized to: 0x22 x 1366x746
00:00:01.132031 GUI: UIMediumEnumerator: Medium-enumeration finished!
00:00:19.628478 GUI: UIMediumEnumerator: Medium-enumeration finished!
00:00:34.980805 GUI: UIMediumEnumerator: Medium-enumeration finished!
00:00:41.926824 GUI: UIMediumEnumerator: Medium-enumeration finished!
00:02:02.078119 GUI: UIMediumEnumerator: Medium-enumeration finished!
