00:00:00.425543 VirtualBox GUI VM Selector Window 6.1.10 r138449 linux.amd64 (Jun  8 2020 08:33:44) release log
00:00:00.425547 Log opened 2020-06-23T12:19:22.396962000Z
00:00:00.425548 Build Type: release
00:00:00.425553 OS Product: Linux
00:00:00.425555 OS Release: 5.4.47-1-lts
00:00:00.425558 OS Version: #1 SMP Wed, 17 Jun 2020 19:42:02 +0000
00:00:00.425598 DMI Product Name: 42872RG
00:00:00.425616 DMI Product Version: ThinkPad X220
00:00:00.425632 Firmware type: BIOS
00:00:00.425710 Host RAM: 7790MB (7.6GB) total, 6363MB (6.2GB) available
00:00:00.425716 Executable: /usr/lib/virtualbox/VirtualBox
00:00:00.425717 Process ID: 28994
00:00:00.425719 Package type: LINUX_64BITS_GENERIC (OSE)
00:00:00.425770 Qt version: 5.15.0
00:00:00.474728 GUI: UIMediumEnumerator: Medium-enumeration started...
00:00:01.082035 GUI: UIDesktopWidgetWatchdog::sltHandleHostScreenAvailableGeometryCalculated: Screen 0 work area is actually resized to: 0x22 x 1366x746
00:00:01.095111 GUI: UIMediumEnumerator: Medium-enumeration finished!
00:01:05.794246 GUI: UIMediumEnumerator: Medium-enumeration finished!
00:01:50.078891 GUI: UIMediumEnumerator: Medium-enumeration finished!
00:04:09.368848 GUI: UIMediumEnumerator: Medium-enumeration finished!
