00:00:00.246105 VirtualBox GUI VM Selector Window 6.1.10 r138449 linux.amd64 (Jun  8 2020 08:33:44) release log
00:00:00.246109 Log opened 2020-06-23T12:08:11.491176000Z
00:00:00.246110 Build Type: release
00:00:00.246114 OS Product: Linux
00:00:00.246116 OS Release: 5.4.47-1-lts
00:00:00.246118 OS Version: #1 SMP Wed, 17 Jun 2020 19:42:02 +0000
00:00:00.246149 DMI Product Name: 42872RG
00:00:00.246164 DMI Product Version: ThinkPad X220
00:00:00.246176 Firmware type: BIOS
00:00:00.246234 Host RAM: 7790MB (7.6GB) total, 6370MB (6.2GB) available
00:00:00.246239 Executable: /usr/lib/virtualbox/VirtualBox
00:00:00.246240 Process ID: 28215
00:00:00.246241 Package type: LINUX_64BITS_GENERIC (OSE)
00:00:00.246282 Qt version: 5.15.0
00:00:00.290032 GUI: UIMediumEnumerator: Medium-enumeration started...
00:00:00.909020 GUI: UIDesktopWidgetWatchdog::sltHandleHostScreenAvailableGeometryCalculated: Screen 0 work area is actually resized to: 0x22 x 1366x746
00:00:00.923149 GUI: UIMediumEnumerator: Medium-enumeration finished!
00:00:14.056525 GUI: UIMediumEnumerator: Medium-enumeration finished!
00:00:15.451521 ERROR [COM]: aRC=NS_ERROR_UNEXPECTED (0x8000ffff) aIID={c0447716-ff5a-4795-b57a-ecd5fffa18a4} aComponent={SessionWrap} aText={The session is not locked (session state: Unlocked)}, preserve=false aResultDetail=0
