00:00:00.214684 VirtualBox GUI VM Selector Window 6.1.10 r138449 linux.amd64 (Jun  8 2020 08:33:44) release log
00:00:00.214689 Log opened 2020-06-23T12:29:19.903750000Z
00:00:00.214690 Build Type: release
00:00:00.214695 OS Product: Linux
00:00:00.214697 OS Release: 5.4.47-1-lts
00:00:00.214699 OS Version: #1 SMP Wed, 17 Jun 2020 19:42:02 +0000
00:00:00.214750 DMI Product Name: 42872RG
00:00:00.214761 DMI Product Version: ThinkPad X220
00:00:00.214778 Firmware type: BIOS
00:00:00.214849 Host RAM: 7790MB (7.6GB) total, 6756MB (6.5GB) available
00:00:00.214853 Executable: /usr/lib/virtualbox/VirtualBox
00:00:00.214854 Process ID: 30075
00:00:00.214854 Package type: LINUX_64BITS_GENERIC (OSE)
00:00:00.214932 Qt version: 5.15.0
00:00:00.247484 GUI: UIMediumEnumerator: Medium-enumeration started...
00:00:00.867935 GUI: UIDesktopWidgetWatchdog::sltHandleHostScreenAvailableGeometryCalculated: Screen 0 work area is actually resized to: 0x22 x 1366x746
00:00:00.881670 GUI: UIMediumEnumerator: Medium-enumeration finished!
00:00:09.494863 GUI: UIMediumEnumerator: Medium-enumeration finished!
