00:00:00.402890 VirtualBox GUI VM Selector Window 6.1.10 r138449 linux.amd64 (Jun  8 2020 08:33:44) release log
00:00:00.402895 Log opened 2020-06-23T12:09:12.224093000Z
00:00:00.402897 Build Type: release
00:00:00.402902 OS Product: Linux
00:00:00.402905 OS Release: 5.4.47-1-lts
00:00:00.402907 OS Version: #1 SMP Wed, 17 Jun 2020 19:42:02 +0000
00:00:00.402949 DMI Product Name: 42872RG
00:00:00.402968 DMI Product Version: ThinkPad X220
00:00:00.402986 Firmware type: BIOS
00:00:00.403063 Host RAM: 7790MB (7.6GB) total, 6384MB (6.2GB) available
00:00:00.403069 Executable: /usr/lib/virtualbox/VirtualBox
00:00:00.403070 Process ID: 28368
00:00:00.403072 Package type: LINUX_64BITS_GENERIC (OSE)
00:00:00.403127 Qt version: 5.15.0
00:00:00.459539 GUI: UIMediumEnumerator: Medium-enumeration started...
00:00:01.070829 GUI: UIDesktopWidgetWatchdog::sltHandleHostScreenAvailableGeometryCalculated: Screen 0 work area is actually resized to: 0x22 x 1366x746
00:00:01.083795 GUI: UIMediumEnumerator: Medium-enumeration finished!
00:00:29.610315 ERROR [COM]: aRC=NS_ERROR_UNEXPECTED (0x8000ffff) aIID={c0447716-ff5a-4795-b57a-ecd5fffa18a4} aComponent={SessionWrap} aText={The session is not locked (session state: Unlocked)}, preserve=false aResultDetail=0
00:00:48.349734 ERROR [COM]: aRC=NS_ERROR_UNEXPECTED (0x8000ffff) aIID={c0447716-ff5a-4795-b57a-ecd5fffa18a4} aComponent={SessionWrap} aText={The session is not locked (session state: Unlocked)}, preserve=false aResultDetail=0
00:03:28.432209 ERROR [COM]: aRC=NS_ERROR_UNEXPECTED (0x8000ffff) aIID={c0447716-ff5a-4795-b57a-ecd5fffa18a4} aComponent={SessionWrap} aText={The session is not locked (session state: Unlocked)}, preserve=false aResultDetail=0
00:03:35.217743 GUI: UIMediumEnumerator: Medium-enumeration finished!
00:04:16.066045 GUI: UIMediumEnumerator: Medium-enumeration finished!
