00:00:00.238238 VirtualBox GUI VM Selector Window 6.1.10 r138449 linux.amd64 (Jun  8 2020 08:33:44) release log
00:00:00.238240 Log opened 2020-06-23T12:04:12.423897000Z
00:00:00.238240 Build Type: release
00:00:00.238243 OS Product: Linux
00:00:00.238244 OS Release: 5.4.47-1-lts
00:00:00.238245 OS Version: #1 SMP Wed, 17 Jun 2020 19:42:02 +0000
00:00:00.238266 DMI Product Name: 42872RG
00:00:00.238274 DMI Product Version: ThinkPad X220
00:00:00.238282 Firmware type: BIOS
00:00:00.238320 Host RAM: 7790MB (7.6GB) total, 6392MB (6.2GB) available
00:00:00.238322 Executable: /usr/lib/virtualbox/VirtualBox
00:00:00.238323 Process ID: 27884
00:00:00.238323 Package type: LINUX_64BITS_GENERIC (OSE)
00:00:00.238352 Qt version: 5.15.0
00:00:00.280729 GUI: UIMediumEnumerator: Medium-enumeration started...
00:00:00.927751 GUI: UIDesktopWidgetWatchdog::sltHandleHostScreenAvailableGeometryCalculated: Screen 0 work area is actually resized to: 0x22 x 1366x746
00:00:00.944214 GUI: UIMediumEnumerator: Medium-enumeration finished!
00:00:17.389300 ERROR [COM]: aRC=NS_ERROR_UNEXPECTED (0x8000ffff) aIID={c0447716-ff5a-4795-b57a-ecd5fffa18a4} aComponent={SessionWrap} aText={The session is not locked (session state: Unlocked)}, preserve=false aResultDetail=0
00:00:49.130852 GUI: UIMediumEnumerator: Medium-enumeration finished!
00:02:49.786983 ERROR [COM]: aRC=NS_ERROR_UNEXPECTED (0x8000ffff) aIID={c0447716-ff5a-4795-b57a-ecd5fffa18a4} aComponent={SessionWrap} aText={The session is not locked (session state: Unlocked)}, preserve=false aResultDetail=0
00:02:59.321223 ERROR [COM]: aRC=NS_ERROR_UNEXPECTED (0x8000ffff) aIID={c0447716-ff5a-4795-b57a-ecd5fffa18a4} aComponent={SessionWrap} aText={The session is not locked (session state: Unlocked)}, preserve=false aResultDetail=0
00:03:42.180509 ERROR [COM]: aRC=NS_ERROR_UNEXPECTED (0x8000ffff) aIID={c0447716-ff5a-4795-b57a-ecd5fffa18a4} aComponent={SessionWrap} aText={The session is not locked (session state: Unlocked)}, preserve=false aResultDetail=0
