00:00:00.417992 VirtualBox GUI VM Selector Window 6.1.10 r138449 linux.amd64 (Jun  8 2020 08:33:44) release log
00:00:00.417996 Log opened 2020-06-23T12:33:05.898876000Z
00:00:00.417997 Build Type: release
00:00:00.418001 OS Product: Linux
00:00:00.418004 OS Release: 5.4.47-1-lts
00:00:00.418006 OS Version: #1 SMP Wed, 17 Jun 2020 19:42:02 +0000
00:00:00.418044 DMI Product Name: 42872RG
00:00:00.418059 DMI Product Version: ThinkPad X220
00:00:00.418074 Firmware type: BIOS
00:00:00.418142 Host RAM: 7790MB (7.6GB) total, 7151MB (6.9GB) available
00:00:00.418148 Executable: /usr/lib/virtualbox/VirtualBox
00:00:00.418149 Process ID: 30500
00:00:00.418150 Package type: LINUX_64BITS_GENERIC (OSE)
00:00:00.418199 Qt version: 5.15.0
00:00:00.467744 GUI: UIMediumEnumerator: Medium-enumeration started...
00:00:01.096973 GUI: UIDesktopWidgetWatchdog::sltHandleHostScreenAvailableGeometryCalculated: Screen 0 work area is actually resized to: 0x22 x 1366x746
00:00:01.111071 GUI: UIMediumEnumerator: Medium-enumeration finished!
00:00:10.483690 GUI: UIMediumEnumerator: Medium-enumeration finished!
