00:00:00.245041 VirtualBox GUI VM Selector Window 6.1.10 r138449 linux.amd64 (Jun  8 2020 08:33:44) release log
00:00:00.245044 Log opened 2020-06-23T12:14:31.614526000Z
00:00:00.245045 Build Type: release
00:00:00.245048 OS Product: Linux
00:00:00.245050 OS Release: 5.4.47-1-lts
00:00:00.245051 OS Version: #1 SMP Wed, 17 Jun 2020 19:42:02 +0000
00:00:00.245090 DMI Product Name: 42872RG
00:00:00.245100 DMI Product Version: ThinkPad X220
00:00:00.245114 Firmware type: BIOS
00:00:00.245178 Host RAM: 7790MB (7.6GB) total, 6243MB (6.0GB) available
00:00:00.245183 Executable: /usr/lib/virtualbox/VirtualBox
00:00:00.245183 Process ID: 28746
00:00:00.245183 Package type: LINUX_64BITS_GENERIC (OSE)
00:00:00.245232 Qt version: 5.15.0
00:00:00.288455 GUI: UIMediumEnumerator: Medium-enumeration started...
00:00:00.940831 GUI: UIDesktopWidgetWatchdog::sltHandleHostScreenAvailableGeometryCalculated: Screen 0 work area is actually resized to: 0x22 x 1366x746
00:00:00.954415 GUI: UIMediumEnumerator: Medium-enumeration finished!
00:00:05.127080 GUI: UIInvisibleWindow::sltFallback: Some event haven't came. Screen: 0, work area: 0x22 x 1366x746
