00:00:00.950889 VirtualBox GUI VM Selector Window 6.1.10 r138449 linux.amd64 (Jun  8 2020 08:33:44) release log
00:00:00.950892 Log opened 2020-06-23T12:35:10.565775000Z
00:00:00.950893 Build Type: release
00:00:00.950896 OS Product: Linux
00:00:00.950897 OS Release: 5.4.47-1-lts
00:00:00.950899 OS Version: #1 SMP Wed, 17 Jun 2020 19:42:02 +0000
00:00:00.950922 DMI Product Name: 42872RG
00:00:00.950931 DMI Product Version: ThinkPad X220
00:00:00.950940 Firmware type: BIOS
00:00:00.950985 Host RAM: 7790MB (7.6GB) total, 7188MB (7.0GB) available
00:00:00.950988 Executable: /usr/lib/virtualbox/VirtualBox
00:00:00.950989 Process ID: 1204
00:00:00.950990 Package type: LINUX_64BITS_GENERIC (OSE)
00:00:00.951022 Qt version: 5.15.0
00:00:01.030857 GUI: UIMediumEnumerator: Medium-enumeration started...
00:00:01.795364 GUI: UIDesktopWidgetWatchdog::sltHandleHostScreenAvailableGeometryCalculated: Screen 0 work area is actually resized to: 0x22 x 1366x746
00:00:01.810767 GUI: UIMediumEnumerator: Medium-enumeration finished!
00:00:13.355795 GUI: UIMediumEnumerator: Medium-enumeration finished!
00:41:11.182087 GUI: UIMediumEnumerator: Medium-enumeration finished!
01:00:27.623370 GUI: UIMediumEnumerator: Medium-enumeration finished!
01:00:27.626144 Log rotated - Log started 2020-06-23T12:35:10.565775000Z
