00:00:00.000494 main     VirtualBox XPCOM Server 6.1.10 r138449 linux.amd64 (Jun  8 2020 08:33:44) release log
00:00:00.000497 main     Log opened 2020-06-23T12:33:05.683073000Z
00:00:00.000497 main     Build Type: release
00:00:00.000500 main     OS Product: Linux
00:00:00.000501 main     OS Release: 5.4.47-1-lts
00:00:00.000502 main     OS Version: #1 SMP Wed, 17 Jun 2020 19:42:02 +0000
00:00:00.000524 main     DMI Product Name: 42872RG
00:00:00.000536 main     DMI Product Version: ThinkPad X220
00:00:00.000546 main     Firmware type: BIOS
00:00:00.000586 main     Host RAM: 7790MB (7.6GB) total, 7155MB (6.9GB) available
00:00:00.000589 main     Executable: /usr/lib/virtualbox/VBoxSVC
00:00:00.000590 main     Process ID: 30525
00:00:00.000591 main     Package type: LINUX_64BITS_GENERIC (OSE)
00:00:00.002575 main     IPC socket path: /tmp/.vbox-nikola-ipc/ipcd
00:00:00.110266 nspr-2   VirtualBox: object creation starts
00:00:00.110454 nspr-2   Home directory: '/home/nikola/.config/VirtualBox'
00:00:00.110820 nspr-2   Loading settings file "/home/nikola/.config/VirtualBox/VirtualBox.xml" with version "1.12-linux"
00:00:00.120457 nspr-2   Failed to retrive disk info: getDiskName(/dev/mapper/volgroup0-lv_root) --> volgroup0-lv_root
00:00:00.132329 nspr-2   NetIfAdpCtlOut: VBoxNetAdpCtl: Error while retrieving link speed for wlp2s0: VBoxNetAdpCtl: ioctl failed: Operation not supported
00:00:00.133482 nspr-2   HostDnsMonitor: initializing
00:00:00.134047 nspr-2   NAT: resolv.conf: nameserver 192.168.0.1
00:00:00.134110 nspr-2   HostDnsMonitor: updating information
00:00:00.134151 nspr-2   HostDnsMonitor: old information
00:00:00.134162 nspr-2     no server entries
00:00:00.134173 nspr-2     no domain set
00:00:00.134182 nspr-2     no search string entries
00:00:00.134191 nspr-2   HostDnsMonitor: new information
00:00:00.134200 nspr-2     server 1: 192.168.0.1
00:00:00.134211 nspr-2     no domain set
00:00:00.134219 nspr-2     no search string entries
00:00:00.141470 nspr-2   VD: VDInit finished with VINF_SUCCESS
00:00:00.147207 nspr-2   Loading settings file "/home/nikola/VirtualBox VMs/Debian/Debian.vbox" with version "1.16-linux"
00:00:00.148004 nspr-2   Loading settings file "/home/nikola/VirtualBox VMs/Windows 7/Windows 7.vbox" with version "1.15-linux"
00:00:00.148986 nspr-2   Loading settings file "/home/nikola/VirtualBox VMs/Kali-Linux-2020.2-vbox-amd64/Kali-Linux-2020.2-vbox-amd64.vbox" with version "1.16-linux"
00:00:00.149653 nspr-2   Loading settings file "/home/nikola/VirtualBox VMs/Win 10 LTSC/Win 10 LTSC.vbox" with version "1.15-linux"
00:00:00.151060 nspr-2   OCI: Local config file '/home/nikola/.config/VirtualBox/oci_config' does not exist
00:00:00.151078 nspr-2   OCI: Original config file '/home/nikola/.oci/config' does not exist
00:00:00.151084 nspr-2   OCI: Reading profiles finished with status NS_OK
00:00:00.151092 nspr-2   ExtPack: Created cloud provider 'OCI' (hrc=NS_OK)
00:00:00.151112 nspr-2   VirtualBox: object created
00:00:00.914296 nspr-2   WARNING [COM]: aRC=NS_ERROR_FAILURE (0x80004005) aIID={16ced992-5fdc-4aba-aff5-6a39bbd7c38b} aComponent={HostWrap} aText={VirtualBox is not currently allowed to access USB devices.  You can change this by adding your user to the 'vboxusers' group.  Please see the user manual for a more detailed explanation}, preserve=true  aResultDetail=0
00:00:01.220337 nspr-2   WARNING [COM]: aRC=NS_ERROR_FAILURE (0x80004005) aIID={16ced992-5fdc-4aba-aff5-6a39bbd7c38b} aComponent={HostWrap} aText={VirtualBox is not currently allowed to access USB devices.  You can change this by adding your user to the 'vboxusers' group.  Please see the user manual for a more detailed explanation}, preserve=true  aResultDetail=0
00:00:01.221897 nspr-2   WARNING [COM]: aRC=NS_ERROR_FAILURE (0x80004005) aIID={16ced992-5fdc-4aba-aff5-6a39bbd7c38b} aComponent={HostWrap} aText={VirtualBox is not currently allowed to access USB devices.  You can change this by adding your user to the 'vboxusers' group.  Please see the user manual for a more detailed explanation}, preserve=true  aResultDetail=0
00:00:03.409963 nspr-3   WARNING [COM]: aRC=NS_ERROR_FAILURE (0x80004005) aIID={16ced992-5fdc-4aba-aff5-6a39bbd7c38b} aComponent={HostWrap} aText={VirtualBox is not currently allowed to access USB devices.  You can change this by adding your user to the 'vboxusers' group.  Please see the user manual for a more detailed explanation}, preserve=true  aResultDetail=0
00:00:04.269995 nspr-4   NetIfAdpCtlOut: VBoxNetAdpCtl: Error while retrieving link speed for wlp2s0: VBoxNetAdpCtl: ioctl failed: Operation not supported
00:00:04.277065 nspr-4   NetIfAdpCtlOut: VBoxNetAdpCtl: Error while retrieving link speed for wlp2s0: VBoxNetAdpCtl: ioctl failed: Operation not supported
00:00:04.291073 nspr-3   WARNING [COM]: aRC=NS_ERROR_FAILURE (0x80004005) aIID={16ced992-5fdc-4aba-aff5-6a39bbd7c38b} aComponent={HostWrap} aText={VirtualBox is not currently allowed to access USB devices.  You can change this by adding your user to the 'vboxusers' group.  Please see the user manual for a more detailed explanation}, preserve=true  aResultDetail=0
00:00:04.291628 nspr-4   WARNING [COM]: aRC=NS_ERROR_FAILURE (0x80004005) aIID={16ced992-5fdc-4aba-aff5-6a39bbd7c38b} aComponent={HostWrap} aText={VirtualBox is not currently allowed to access USB devices.  You can change this by adding your user to the 'vboxusers' group.  Please see the user manual for a more detailed explanation}, preserve=true  aResultDetail=0
00:00:04.639407 nspr-4   WARNING [COM]: aRC=NS_ERROR_FAILURE (0x80004005) aIID={16ced992-5fdc-4aba-aff5-6a39bbd7c38b} aComponent={HostWrap} aText={VirtualBox is not currently allowed to access USB devices.  You can change this by adding your user to the 'vboxusers' group.  Please see the user manual for a more detailed explanation}, preserve=true  aResultDetail=0
00:00:04.640997 nspr-4   WARNING [COM]: aRC=NS_ERROR_FAILURE (0x80004005) aIID={16ced992-5fdc-4aba-aff5-6a39bbd7c38b} aComponent={HostWrap} aText={VirtualBox is not currently allowed to access USB devices.  You can change this by adding your user to the 'vboxusers' group.  Please see the user manual for a more detailed explanation}, preserve=true  aResultDetail=0
00:00:08.017896 nspr-4   WARNING [COM]: aRC=NS_ERROR_FAILURE (0x80004005) aIID={16ced992-5fdc-4aba-aff5-6a39bbd7c38b} aComponent={HostWrap} aText={VirtualBox is not currently allowed to access USB devices.  You can change this by adding your user to the 'vboxusers' group.  Please see the user manual for a more detailed explanation}, preserve=false aResultDetail=0
00:00:10.185318 nspr-3   WARNING [COM]: aRC=NS_ERROR_FAILURE (0x80004005) aIID={16ced992-5fdc-4aba-aff5-6a39bbd7c38b} aComponent={HostWrap} aText={VirtualBox is not currently allowed to access USB devices.  You can change this by adding your user to the 'vboxusers' group.  Please see the user manual for a more detailed explanation}, preserve=true  aResultDetail=0
00:00:10.185775 nspr-4   Saving settings file "/home/nikola/VirtualBox VMs/Windows 7/Windows 7.vbox" with version "1.15-linux"
00:00:10.322421 nspr-2   WARNING [COM]: aRC=NS_ERROR_FAILURE (0x80004005) aIID={16ced992-5fdc-4aba-aff5-6a39bbd7c38b} aComponent={HostWrap} aText={VirtualBox is not currently allowed to access USB devices.  You can change this by adding your user to the 'vboxusers' group.  Please see the user manual for a more detailed explanation}, preserve=true  aResultDetail=0
00:00:10.324032 nspr-2   WARNING [COM]: aRC=NS_ERROR_FAILURE (0x80004005) aIID={16ced992-5fdc-4aba-aff5-6a39bbd7c38b} aComponent={HostWrap} aText={VirtualBox is not currently allowed to access USB devices.  You can change this by adding your user to the 'vboxusers' group.  Please see the user manual for a more detailed explanation}, preserve=true  aResultDetail=0
00:00:11.801506 nspr-2   Saving settings file "/home/nikola/.config/VirtualBox/VirtualBox.xml" with version "1.12-linux"
00:00:11.821193 nspr-2   Saving settings file "/home/nikola/.config/VirtualBox/VirtualBox.xml" with version "1.12-linux"
00:00:17.350916 main     VirtualBox: object deletion starts
00:00:17.350967 main     ERROR [COM]: aRC=VBOX_E_OBJECT_IN_USE (0x80bb000c) aIID={ad47ad09-787b-44ab-b343-a082a3f2dfb1} aComponent={MediumWrap} aText={Medium '/home/nikola/VirtualBox VMs/Debian/Debian.vdi' cannot be closed because it is still attached to 1 virtual machines}, preserve=false aResultDetail=0
00:00:17.351122 main     ERROR [COM]: aRC=VBOX_E_OBJECT_IN_USE (0x80bb000c) aIID={ad47ad09-787b-44ab-b343-a082a3f2dfb1} aComponent={MediumWrap} aText={Medium '/home/nikola/VirtualBox VMs/Windows 7/Windows 7.vdi' cannot be closed because it is still attached to 1 virtual machines}, preserve=false aResultDetail=0
00:00:17.351235 main     ERROR [COM]: aRC=VBOX_E_OBJECT_IN_USE (0x80bb000c) aIID={ad47ad09-787b-44ab-b343-a082a3f2dfb1} aComponent={MediumWrap} aText={Medium '/home/nikola/VirtualBox VMs/Kali-Linux-2020.2-vbox-amd64/Kali-Linux-2020.2-vbox-amd64-disk001.vdi' cannot be closed because it is still attached to 1 virtual machines}, preserve=false aResultDetail=0
00:00:17.351339 main     ERROR [COM]: aRC=VBOX_E_OBJECT_IN_USE (0x80bb000c) aIID={ad47ad09-787b-44ab-b343-a082a3f2dfb1} aComponent={MediumWrap} aText={Medium '/home/nikola/VirtualBox VMs/Win 10 LTSC/Win 10 LTSC.vdi' cannot be closed because it is still attached to 1 virtual machines}, preserve=false aResultDetail=0
00:00:17.351640 main     HostDnsMonitor: shutting down ...
00:00:17.383483 main     HostDnsMonitor: shut down
00:00:17.554669 Watcher  ERROR [COM]: aRC=E_ACCESSDENIED (0x80070005) aIID={d0a0163f-e254-4e5b-a1f2-011cf991c38d} aComponent={VirtualBoxWrap} aText={The object is not ready}, preserve=false aResultDetail=0
00:00:17.554846 main     VirtualBox: object deleted
